…
``` r
library(tidyverse)


# scrape starting orders out of the files Sheldrin sent
start_ords <- scrape_starting_orders("gitignored_data/FrightFest2024/StartingOrders")

start_ords
```

    ## # A tibble: 407 × 15
    ##    day    competitor_index report_name  music_name report_event event_full path 
    ##    <chr>             <int> <chr>        <chr>      <chr>        <chr>      <chr>
    ##  1 Sunday                1 Synchronici… Denver Sy… Open Master… 105 Open … giti…
    ##  2 Sunday                2 Crystals, F… Fort Coll… Open Master… 105 Open … giti…
    ##  3 Sunday                1 Icicles, Fo… Fort Coll… Aspire 1 Sy… 106 Aspir… giti…
    ##  4 Sunday                1 Fireflies, … Fire Crys… Aspire 2 Sy… 107 Aspir… giti…
    ##  5 Sunday                1 Crystals, F… Fire Crys… Aspire 4 Sy… 108 Aspir… giti…
    ##  6 Sunday                2 Synchronici… Denver Sy… Aspire 4 Sy… 108 Aspir… giti…
    ##  7 Sunday                1 Hill, Barbra Barbra Hi… Adult Pre-B… 109 Adult… giti…
    ##  8 Sunday                2 Garg, Brenda Brenda Ga… Adult Pre-B… 109 Adult… giti…
    ##  9 Sunday                1 Koontz, Nel… Nelia Koo… Adult High … 110 Adult… giti…
    ## 10 Sunday                2 Lundin, Rut… Ruthie Lu… Adult High … 110 Adult… giti…
    ## # ℹ 397 more rows
    ## # ℹ 8 more variables: text_vec <list>, title <chr>, event_number <chr>,
    ## #   event_name <chr>, segment <chr>, competitors_full <chr>, full_name <chr>,
    ## #   club <chr>
…
